{
  "openapi": "3.0.1",
  "info": {
    "title": "Vacancy Microservice",
    "description": "This is the documentation of the VACANCY MICROSERVICE in the `Rappi` project.",
    "termsOfService": "",
    "contact": {
      "email": "camiloa.mejia@udea.edu.co"
    },
    "version": "1.0.0"
  },
  "externalDocs": {
    "description": "Find out more about Swagger",
    "url": "http://swagger.io"
  },
  "servers": [
    {
      "url": "http://localhost:5000/api/v1/vacancy"
    }
  ],
  "tags": [
    {
      "name": "vacancy",
      "description": "Operations about restaurant"
    }
  ],
  "paths": {
    "/": {
      "get": {
        "tags": [
          "vacancy"
        ],
        "summary": "Get a list of vacancies in the system",
        "description": "This can be by everyone, and will be consumed from the client",
        "operationId": "getVacancies",
        "responses": {
          "200": {
            "description": "successful operation",
            "content": {}
          }
        }
      }
    },
    "/{vacancyId}": {
      "get": {
        "tags": [
          "vacancy"
        ],
        "summary": "Get vacancy by unique vacancy identifier",
        "operationId": "getVacancy",
        "parameters": [
          {
            "name": "vacancyId",
            "in": "path",
            "description": "The id that needs to be fetched. ",
            "required": true,
            "schema": {
              "type": "string"
            }
          }
        ],
        "responses": {
          "200": {
            "description": "successful operation",
            "content": {
              "application/json": {
                "schema": {
                  "$ref": "#/components/schemas/getUser"
                }
              }
            }
          },
          "400": {
            "description": "Invalid id supplied",
            "content": {}
          },
          "404": {
            "description": "User not found",
            "content": {}
          }
        }
      }
    }
  }
}